Nom;Prénom;Numéro;Login;E-mail;Composante;Diplôme(s)
Allain;Eve;471998;eallain;eve.allain@etud.univ-pau.fr;"UFR LETTRES, LANGUES, SCIENCES HUMAINES ET SPORT";"L3 Géo, Environnement, transition économique & dév durable"
Andre;Noémy;491059;nandre002;noemy.andre@etud.univ-pau.fr;"UFR SCIENCES ET TECHNIQUES PAU";"L2 Informatique"
"Andreu Dit Boussut";Nathalie;20248;nandreu;nathalie.andreu@univ-pau.fr;"UFR SCIENCES ET TECHNIQUES PAU";TEACHER_COHORT
Assier;Steffany;504215;sassier;steffany.assier@etud.univ-pau.fr;"UFR SCIENCES ET TECHNIQUES PAU";"L1 Mathématiques"
Boue-Bigne;Lucas;502478;lbbigne;lucas.boue-bigne@etud.univ-pau.fr;"UFR SCIENCES ET TECHNIQUES PAU";"L1 Informatique"
Briois;Jérome;442438;jbriois;jerome.briois@etud.univ-pau.fr;"UFR SCIENCES ET TECHNIQUES PAU";"L3 Informatique"
Camy;Justine;471443;jcamy;j.camy@etud.univ-pau.fr;"UFR SCIENCES ET TECHNIQUES PAU";"L2 Informatique"
Clastre;Benjamin;503764;bclastre;benjamin.clastre@etud.univ-pau.fr;"UFR SCIENCES ET TECHNIQUES PAU";"L1 Mathématiques"
"Dalle Molle";Baptiste;502529;bdmolle;baptiste.dalle-molle@etud.univ-pau.fr;"UFR SCIENCES ET TECHNIQUES PAU";"L1 Informatique"
Fillon;Jean-Louis;457420;jfillon;jean-louis.fillon@etud.univ-pau.fr;"UFR SCIENCES ET TECHNIQUES PAU";"L3 Informatique"
Garcia;Matthieu;470976;mgarcia001;m.garcia@etud.univ-pau.fr;"UFR SCIENCES ET TECHNIQUES PAU";"L2 Informatique"
Giran;Corentin;444379;cgiran;giran.c@etud.univ-pau.fr;"UFR SCIENCES ET TECHNIQUES PAU";"L1 Sciences de la vie"
Jamet-Chopin;Lisa;471999;ljchopin;lisa.jamet-chopin@etud.univ-pau.fr;"UFR LETTRES, LANGUES, SCIENCES HUMAINES ET SPORT";"L3 Histoire de l'Art - Archéologie et Patrimoine"
Mahamat;Abdelkerim;495490;amahamat;mahamat.ab@etud.univ-pau.fr;"UFR SCIENCES ET TECHNIQUES PAU";"L2 Mathématiques"
Martin;Corentin;502714;cmartin013;martin.corentin@etud.univ-pau.fr;"UFR SCIENCES ET TECHNIQUES PAU";"L1 Mathématiques et Informatique Appliquées aux SHS"
Martins;Vincent;500966;vmartins;vincent.martins@etud.univ-pau.fr;"UFR SCIENCES ET TECHNIQUES PAU";"L1 Informatique"
Mastrago;Rémi;501272;rmastrago;remi.mastrago@etud.univ-pau.fr;"UFR SCIENCES ET TECHNIQUES PAU";"L1 Informatique"
Mejia;Aurora;36320;abessier;aurora.mejia@univ-pau.fr;;TEACHER_COHORT
Munch;Emile;500493;emunch;emile.munch@etud.univ-pau.fr;"UFR SCIENCES ET TECHNIQUES PAU";"L1 Informatique"
N'daw;Maïna;500461;mndaw;maina.ndaw@etud.univ-pau.fr;"UFR SCIENCES ET TECHNIQUES PAU";"L1 Informatique"
Pedebearn;Stanislas;492634;spedebearn;stanislas.pedebearn@etud.univ-pau.fr;"UFR SCIENCES ET TECHNIQUES PAU";"L2 Informatique"
Piai;Hugo;503394;hpiai;hugo.piai@etud.univ-pau.fr;"UFR SCIENCES ET TECHNIQUES PAU";"L1 Mathématiques"
Pot;Maxime;472181;mpot;maxime.pot@etud.univ-pau.fr;"UFR SCIENCES ET TECHNIQUES PAU";"L3 Informatique"
Rossignol;Julien;502037;jrossigno001;julien.rossignol@etud.univ-pau.fr;"UFR SCIENCES ET TECHNIQUES PAU";"L1 Informatique"
Sanchez;"Jean Michel";500984;jmsanchez;jean-michel.sanchez@etud.univ-pau.fr;"UFR SCIENCES ET TECHNIQUES PAU";"L1 Informatique"
Simon;Mélina;492870;msimon003;melina.simon@etud.univ-pau.fr;"UFR SCIENCES ET TECHNIQUES PAU";"L2 Informatique"
Tressens;Pauline;450495;ptressen;pauline.tressens@etud.univ-pau.fr;"UFR LETTRES, LANGUES, SCIENCES HUMAINES ET SPORT";"L3 Géo, Environnement, transition économique & dév durable"
Vignals;Maxime;491412;mvignals;maxime.vignals@etud.univ-pau.fr;"UFR SCIENCES ET TECHNIQUES PAU";"L1 Informatique"
